Introduction to sinterval • sinterval
…
penguins_filter <- penguins[,c("flipper_length_mm", "body_mass_g", "species")]
penguins_filter <- penguins_filter[!is.na(penguins_filter$body_mass_g),]

mod <- lm(flipper_length_mm ~ body_mass_g*species,
          data = penguins_filter)

fit_sims <- add_fitted_sims(penguins_filter, mod, n_sims = 100)

By default, add_fitted_sims does 1000 simulations, but
here we use 100. One can also set a seed for repeatable behavior.
Looking at the data we can see a column with the simulation number and
another with a fit value.

fit_sims
#> # A tibble: 34,200 × 5
#>    flipper_length_mm body_mass_g species .sim  flipper_length_mm_fit
#>                <int>       <int> <fct>   <chr>                 <dbl>
#>  1               181        3750 Adelie  1                      191.
#>  2               181        3750 Adelie  2                      190.
#>  3               181        3750 Adelie  3                      191.
#>  4               181        3750 Adelie  4                      190.
#>  5               181        3750 Adelie  5                      190.
#>  6               181        3750 Adelie  6                      190.
#>  7               181        3750 Adelie  7                      190.
#>  8               181        3750 Adelie  8                      190.
#>  9               181        3750 Adelie  9                      190.
#> 10               181        3750 Adelie  10                     190.
#> # … with 34,190 more rows
…
Note that the column name is also changed to reflect that this is a
prediction.

predicted_sims
#> # A tibble: 34,200 × 5
#>    flipper_length_mm body_mass_g species .sim  flipper_length_mm_predict
#>                <int>       <int> <fct>   <chr>                     <dbl>
#>  1               181        3750 Adelie  1                          180.
#>  2               181        3750 Adelie  2                          198.
#>  3               181        3750 Adelie  3                          191.
#>  4               181        3750 Adelie  4                          194.
#>  5               181        3750 Adelie  5                          193.
#>  6               181        3750 Adelie  6                          190.
#>  7               181        3750 Adelie  7                          189.
#>  8               181        3750 Adelie  8                          184.
#>  9               181        3750 Adelie  9                          199.
#> 10               181        3750 Adelie  10                         187.
#> # … with 34,190 more rows
…
